<svg xmlns="http://www.w3.org/2000/svg" width="51" height="51" viewBox="0 0 51 51">
  <g id="Group_6537" data-name="Group 6537" transform="translate(-7707.807 -2835)">
    <path id="Path_5202" data-name="Path 5202" d="M183.307.5h0a25,25,0,1,1-25,25,25,25,0,0,1,25-25" transform="translate(7550 2835)" fill="#f0f0ff"/>
    <path id="Path_5203" data-name="Path 5203" d="M183.307.5h0a25,25,0,1,1-25,25A25,25,0,0,1,183.307.5Z" transform="translate(7550 2835)" fill="none" stroke="#b5b5ff" stroke-miterlimit="10" stroke-width="1"/>
    <path id="Path_5204" data-name="Path 5204" d="M180.7,22.088a.931.931,0,1,0,.173-.016.913.913,0,0,0-.173.016m0,0a.931.931,0,1,0,.173-.016.913.913,0,0,0-.173.016m9.859.412c-.45-1.094.645-3.25-.178-4.071s-2.978.275-4.067-.178c-1.053-.436-1.795-2.751-3-2.751s-1.951,2.316-3,2.751c-1.093.453-3.25-.645-4.071.178s.275,2.977-.178,4.071c-.436,1.05-2.75,1.791-2.75,3s2.315,1.95,2.75,3c.453,1.089-.645,3.245.178,4.067s2.978-.271,4.071.178c1.05.435,1.791,2.75,3,2.75s1.95-2.316,3-2.75c1.089-.45,3.245.644,4.067-.178s-.271-2.978.178-4.067c.436-1.054,2.751-1.8,2.751-3s-2.315-1.951-2.751-3m-11.788.511a2.1,2.1,0,0,1,4.2.024,2.144,2.144,0,0,1-.082.569,2.1,2.1,0,0,1-4.119-.593m1.884,6.974h-1.2l5.945-8.721a.59.59,0,0,1,.487-.258h1.191l-5.936,8.721a.59.59,0,0,1-.487.258m5.09.111a2.1,2.1,0,1,1,2.1-2.1A2.1,2.1,0,0,1,185.743,30.1Zm.1-3.022a.934.934,0,1,0,.83,1.027.921.921,0,0,0,0-.21.934.934,0,0,0-.828-.817M181.8,23.011a.936.936,0,1,0-.942.929h.008A.933.933,0,0,0,181.8,23.011Z" transform="translate(7550 2835)" fill="#6c6cff"/>
  </g>
</svg>
